<?xml version="1.0" standalone="no"?>
<!DOCTYPE svg PUBLIC "-//W3C//DTD SVG 20010904//EN"
 "http://www.w3.org/TR/2001/REC-SVG-20010904/DTD/svg10.dtd">
<svg version="1.0" xmlns="http://www.w3.org/2000/svg"
 width="700.000000pt" height="700.000000pt" viewBox="0 0 700.000000 700.000000"
 preserveAspectRatio="xMidYMid meet">
<metadata>
Created by potrace 1.11, written by Peter Selinger 2001-2013
</metadata>
<g transform="translate(0.000000,700.000000) scale(0.100000,-0.100000)"
fill="#000000" stroke="none">
<path d="M4288 6415 c-2 -2 -21 -5 -43 -8 -238 -29 -520 -328 -600 -638 -32
-122 -40 -191 -37 -337 2 -179 18 -251 88 -400 64 -136 134 -232 224 -305 35
-29 140 -83 200 -103 81 -28 243 -25 330 5 261 90 473 358 540 681 32 152 32
373 1 488 -38 145 -70 216 -148 333 -114 172 -287 277 -470 283 -45 2 -84 2
-85 1z m100 -798 c152 -100 189 -367 80 -586 -36 -73 -116 -159 -173 -186
-162 -76 -327 26 -365 226 -41 207 33 420 183 532 49 37 85 47 163 44 58 -2
78 -7 112 -30z"/>
<path d="M2565 5404 c-202 -55 -347 -206 -445 -463 -74 -194 -74 -449 1 -694
92 -302 329 -546 589 -607 30 -8 91 -13 136 -13 144 1 265 51 381 157 107 98
178 227 225 409 29 110 31 344 5 464 -36 169 -99 319 -177 423 -102 137 -257
262 -385 310 -74 28 -251 35 -330 14z m378 -723 c25 -12 68 -46 95 -76 195
-213 174 -598 -38 -694 -98 -44 -196 -18 -290 78 -98 101 -139 214 -136 376 2
112 29 195 82 258 26 31 86 70 124 80 37 10 119 -1 163 -22z"/>
<path d="M4438 4358 c-294 -27 -563 -228 -677 -506 -24 -58 -33 -88 -58 -187
-10 -39 -11 -321 -2 -390 22 -161 69 -315 149 -480 141 -291 322 -492 620
-688 197 -131 413 -234 685 -327 120 -42 134 -40 138 14 2 26 -10 36 -149 125
-247 158 -343 233 -517 401 -99 95 -185 198 -252 300 -64 98 -105 182 -171
350 -27 71 -45 148 -69 305 -12 76 -6 272 10 346 9 41 17 79 18 85 2 6 18 42
37 80 61 125 203 241 330 270 59 13 63 14 125 15 164 5 322 -50 430 -148 52
-47 51 -49 -48 -50 -110 -1 -165 -21 -226 -82 -113 -113 -113 -282 1 -398 135
-137 361 -112 475 54 l38 55 0 107 c0 122 -15 181 -78 306 -151 304 -464 475
-809 443z"/>
<path d="M2405 3315 c-5 -2 -44 -11 -85 -20 -147 -33 -286 -112 -400 -226 -83
-84 -133 -158 -182 -270 -93 -218 -83 -389 31 -498 68 -65 122 -86 226 -86 78
0 97 4 140 27 206 109 231 366 49 504 -58 45 -127 63 -222 59 l-83 -4 21 26
c51 65 179 139 290 168 336 89 647 -92 725 -420 28 -116 28 -352 1 -499 -44
-237 -186 -536 -345 -726 -49 -59 -210 -223 -276 -280 -83 -74 -271 -209 -412
-298 -205 -128 -190 -114 -164 -155 18 -29 25 -33 48 -29 29 5 260 90 316 116
18 8 55 24 84 35 59 23 216 104 280 144 24 15 45 27 47 27 8 0 163 107 231
158 83 64 270 253 333 337 164 222 275 483 318 750 13 85 13 359 -1 440 -35
203 -101 333 -244 476 -162 162 -342 237 -586 244 -71 2 -134 2 -140 0z"/>
</g>
</svg>
